{
    "KPlugin": {
        "Authors": [
            {
                "Email": "sebas@kde.org",
                "Name": "Sebastian Kügler",
                "Name[ar]": "Sebastian Kügler",
                "Name[az]": "Sebastian Kügler",
                "Name[ca@valencia]": "Sebastian Kügler",
                "Name[ca]": "Sebastian Kügler",
                "Name[cs]": "Sebastian Kügler",
                "Name[de]": "Sebastian Kügler",
                "Name[en_GB]": "Sebastian Kügler",
                "Name[es]": "Sebastian Kügler",
                "Name[eu]": "Sebastian Kügler",
                "Name[fi]": "Sebastian Kügler",
                "Name[fr]": "Sebastian Kügler",
                "Name[ia]": "Sebastian Kügler",
                "Name[it]": "Sebastian Kügler",
                "Name[ja]": "Sebastian Kügler",
                "Name[ko]": "Sebastian Kügler",
                "Name[lt]": "Sebastian Kügler",
                "Name[nl]": "Sebastian Kügler",
                "Name[nn]": "Sebastian Kügler",
                "Name[pl]": "Sebastian Kügler",
                "Name[pt]": "Sebastian Kügler",
                "Name[pt_BR]": "Sebastian Kügler",
                "Name[ro]": "Sebastian Kügler",
                "Name[ru]": "Sebastian Kügler",
                "Name[sk]": "Sebastian Kügler",
                "Name[sl]": "Sebastian Kügler",
                "Name[sv]": "Sebastian Kügler",
                "Name[tr]": "Sebastian Kügler",
                "Name[uk]": "Sebastian Kügler",
                "Name[vi]": "Sebastian Kügler",
                "Name[x-test]": "xxSebastian Küglerxx",
                "Name[zh_CN]": "Sebastian Kügler"
            }
        ],
        "Description": "Matches Kate Sessions",
        "Description[ar]": "تطابق جلسات كيت",
        "Description[az]": "Kate sessiyalarına uyğun",
        "Description[ca@valencia]": "Correspon amb sessions del Kate",
        "Description[ca]": "Correspon amb sessions del Kate",
        "Description[cs]": "Vyhledávání v sezeních Kate",
        "Description[de]": "Findet Kate-Sitzungen",
        "Description[en_GB]": "Matches Kate Sessions",
        "Description[es]": "Coincide sesiones de Kate",
        "Description[eu]": "«Kate»n saioak parekatzen ditu",
        "Description[fi]": "Etsii Katen istunnoista",
        "Description[fr]": "Fait correspondre les sessions de Kate",
        "Description[ia]": "Corresponde a Sessiones de Kate",
        "Description[it]": "Verifica sessioni di Kate",
        "Description[ja]": "Kate のセッションを探します",
        "Description[ko]": "Kate 세션과 일치",
        "Description[lt]": "Atitinka Kate seansus",
        "Description[nl]": "Zoekt Kate-sessies",
        "Description[nn]": "Søk etter Kate-økter",
        "Description[pl]": "Wyszukuje sesji Kate",
        "Description[pt]": "Correspondência a Sessões do Kate",
        "Description[pt_BR]": "Corresponder às sessões do Kate",
        "Description[ro]": "Potrivește sesiuni Kate",
        "Description[ru]": "Открытие сеансов Kate",
        "Description[sk]": "Zobrazí Kate sedenia",
        "Description[sl]": "Najti seje Kate",
        "Description[sv]": "Matchar Kate-sessioner",
        "Description[tr]": "Kate oturumlarını eşleştirir",
        "Description[uk]": "Шукає сеанси Kate",
        "Description[vi]": "Tìm các phiên Kate",
        "Description[x-test]": "xxMatches Kate Sessionsxx",
        "Description[zh_CN]": "匹配 Kate 会话",
        "EnabledByDefault": true,
        "Icon": "kate",
        "Id": "katesessions",
        "License": "LGPL",
        "Name": "Kate Sessions",
        "Name[ar]": "جلسات كيت",
        "Name[az]": "Kate sessiyaları",
        "Name[ca@valencia]": "Sessions del Kate",
        "Name[ca]": "Sessions del Kate",
        "Name[cs]": "Sezení Kate",
        "Name[de]": "Kate-Sitzungen",
        "Name[en_GB]": "Kate Sessions",
        "Name[es]": "Sesiones de Kate",
        "Name[eu]": "Kate saioak",
        "Name[fi]": "Kate-istunnot",
        "Name[fr]": "Sessions de Kate",
        "Name[ia]": "Sessiones de Kate",
        "Name[it]": "Sessioni di Kate",
        "Name[ja]": "Kate セッション",
        "Name[ko]": "Kate 세션",
        "Name[lt]": "Kate seansai",
        "Name[nl]": "Kate-sessies",
        "Name[nn]": "Kate-øktveljar",
        "Name[pl]": "Sesje Kate",
        "Name[pt]": "Sessões do Kate",
        "Name[pt_BR]": "Sessões do Kate",
        "Name[ro]": "Sesiuni Kate",
        "Name[ru]": "Kate: сеансы",
        "Name[sk]": "Sedenia Kate",
        "Name[sl]": "Seje Kate",
        "Name[sv]": "Kate-sessioner",
        "Name[tr]": "Kate Oturumları",
        "Name[uk]": "Сеанси Kate",
        "Name[vi]": "Các phiên Kate",
        "Name[x-test]": "xxKate Sessionsxx",
        "Name[zh_CN]": "Kate 会话"
    }
}
